Ayudantía 5 - ML para Negocios
…
grid_k <- tibble(neighbors = seq(1, 200, by = 3))
sacr_results <- sacr_wf %>% 
  tune::tune_grid(resamples = sacr_cv, grid = grid_k) %>% 
  collect_metrics()

sacr_results

## # A tibble: 134 × 7
##    neighbors .metric .estimator       mean     n   std_err .config              
##        <dbl> <chr>   <chr>           <dbl> <int>     <dbl> <chr>                
##  1         1 rmse    standard   116044.        5 6438.     Preprocessor1_Model01
##  2         1 rsq     standard        0.394     5    0.0531 Preprocessor1_Model01
##  3         4 rmse    standard    95361.        5 4322.     Preprocessor1_Model02
##  4         4 rsq     standard        0.512     5    0.0250 Preprocessor1_Model02
##  5         7 rmse    standard    91533.        5 4141.     Preprocessor1_Model03
##  6         7 rsq     standard        0.542     5    0.0205 Preprocessor1_Model03
##  7        10 rmse    standard    90326.        5 4222.     Preprocessor1_Model04
##  8        10 rsq     standard        0.552     5    0.0216 Preprocessor1_Model04
##  9        13 rmse    standard    89280.        5 4174.     Preprocessor1_Model05
## 10        13 rsq     standard        0.562     5    0.0194 Preprocessor1_Model05
## # … with 124 more rows
…
