Ayudantía 4 - ML para Negocios
…
Otro problema importante es que esta técnica funcionaría solo en el
caso de un predictor (o a lo más dos si usamos gráficos 3D), pero no
para los casos generales que son más comunes. Además, puede ser que si
vemos gráficos 2D por separado pensemos que la relación no es lineal,
pero al verlo de manera conjunta sí existe esta relación.

De todas maneras, veamos dos ejemplo visuales. Primero utilizaremos
la variable Age que no tiene los problemas de muchos \(n_i = 1\):

# Podemos contar según la edad, vemos que existe un n_i = 1
age_freqs <- credit %>% 
  dplyr::count(age, name = 'total')
age_freqs

## # A tibble: 53 × 2
##      age total
##    <dbl> <int>
##  1    19     2
##  2    20    14
##  3    21    14
##  4    22    27
##  5    23    48
##  6    24    44
##  7    25    41
##  8    26    50
##  9    27    51
## 10    28    43
## # … with 43 more rows
…
A través del gráfico podemos ver que al parecer no se cumple el
supuesto de linealidad del logito si sólo consideramos la
variable Age.

Ahora veamos una variable continua, en particular la variable
credit_amount. En el caso continuo, si no se repiten mucho
los valores, es conveniente agrupar los datos en categorías.

# Podemos contar según el monto del crédito, vemos que en este caso hay 847 n_i = 1
am_freqs <- credit %>% 
  dplyr::count(credit_amount, name = 'total')
am_freqs

## # A tibble: 921 × 2
##    credit_amount total
##            <dbl> <int>
##  1           250     1
##  2           276     1
##  3           338     1
##  4           339     1
##  5           343     1
##  6           362     1
##  7           368     1
##  8           385     1
##  9           392     1
## 10           409     1
## # … with 911 more rows
…
